1 10 20
100 200 125
201 210 89
900 1000 174
1910 5262 238
1603 5878 238
1841 3810 238
1273 5189 238
1847 5006 238
800 5381 238
281 5272 238
1218 5081 238
1786 3022 217
1731 4539 238
1657 4513 238
1262 5677 238
81 3283 217
989 2579 209
1432 3709 217
1120 4649 238
511 5225 238
1183 6753 262
1324 3886 238
1159 2269 183
1556 6998 262
631 4542 238
1760 6007 238
574 6102 238
612 4780 238
1103 4057 238
1826 6651 262
1092 5577 238
1177 2900 209
171 3710 217
1266 4155 238
1898 3030 217
1563 3937 238
839 2941 217
1180 3124 217
1697 3433 217
1133 4357 238
1806 2385 183
968 4225 238
268 5160 238
69 3330 217
1672 3159 217
1245 2959 217
197 2651 209
145 3323 217
248 4527 238
1394 2464 209
4 2490 209
1385 2919 217
9306 13742 276
9236 12551 268
8704 12178 268
9727 13277 276
8416 13346 276
8625 12911 268
9640 13942 276
9236 12787 268
9690 13946 276
9281 13140 268
8980 12581 268
9969 13998 276
9835 13371 276
9145 13799 276
9831 12897 268
9754 13106 268
8638 12906 268
9461 13889 276
8345 13596 276
8060 12291 268
8289 13097 268
9331 12672 268
8018 12400 268
9067 13431 276
9880 12694 268
9315 12310 268
9772 13691 276
9171 12591 268
8561 13732 276
9102 13008 268
8190 12970 268
9089 12301 268
8986 13914 276
9895 13859 276
8688 13442 276
8259 12870 268
8833 12564 268
8632 12013 268
9789 13341 276
8442 13119 268
9485 13308 276
9440 12649 268
8320 12436 268
9657 12750 268
9002 12824 268
9042 13387 276
8336 13278 276
8749 13285 276
8272 13701 276
30315 34903 311
29990 31524 285
30724 30766 179
28594 36352 324
28084 33575 285
26284 32080 308
31300 29257 272
29829 30720 272
26647 34921 311
29352 37906 324
30798 37289 324
31171 37163 324
30154 32342 285
25185 31667 308
26458 37004 324
27766 33084 285
27102 32927 285
30156 33596 285
29706 33164 285
29941 30044 210
28094 35232 311
29627 33840 285
27763 30573 272
25119 30371 308
27591 34167 285
26426 37085 324
25046 33359 308
31024 31312 254
30624 34484 311
31769 31178 285
30214 37238 324
29491 36107 324
25822 37058 324
25453 33377 308
31380 31327 254
30506 36978 324
28106 33322 285
30422 37437 324
26252 30482 308
28098 33005 285
30738 31120 210
27892 36428 324
26143 34409 311
28591 35280 311
31436 29974 285
25280 31041 308
25481 31696 308
25322 36035 324
30640 36565 324
205984 328456 443
211217 285732 443
243166 287537 407
226712 334946 443
207743 313506 443
242620 292394 407
229532 337568 443
217327 319037 443
229775 321854 443
254386 338633 407
255747 255383 288
202485 293211 443
253651 304596 407
234433 321746 407
255438 317437 407
219165 254698 443
236302 304717 407
205462 257662 443
218891 308015 443
220979 302824 443
203961 313302 443
239890 298385 407
232847 340050 407
239482 304939 407
246945 270284 407
226544 264937 443
230637 268845 407
224177 267451 443
241330 262683 363
214904 267970 443
215683 340411 443
213818 327477 443
232110 283599 407
209352 315459 443
244206 280684 407
232621 304239 407
214132 292111 443
238770 262798 368
251537 349458 441
243061 332612 407
202594 257528 443
230482 255937 443
238820 296549 407
227586 296632 443
235632 346186 441
210758 342925 443
225062 263773 443
239635 345016 407
212411 268246 443
663676 909977 525
672063 898695 525
587995 905959 525
639997 630413 416
663176 732862 504
556684 730232 509
610723 935991 525
542881 649191 509
500726 809509 509
622477 984026 525
678615 990104 525
590214 960740 525
500753 959173 525
531993 914432 525
559175 632280 509
573736 756126 509
711652 883718 525
628538 755895 504
634359 813080 504
686061 752694 504
693937 954543 525
552047 746350 509
738131 630112 504
656524 629047 416
700727 851528 525
568402 792505 509
573851 802004 509
736906 751688 424
729755 862932 525
717303 854595 525
741141 935051 525
618507 997760 525
548831 837028 509
674166 806929 504
568818 895578 525
672318 882926 525
652045 889900 525
552777 633189 509
647744 839043 525
680674 619683 509
698244 754045 504
537324 732993 509
509416 847523 525
593720 640968 509
683133 923542 525
726086 983357 525
522004 717295 509
584239 791533 509
526728 835822 509
